Calculadora/simulation/qsim/Calculadora.msim.vcd
$comment
	File created using the following command:
		vcd file Calculadora.msim.vcd -direction
$end
$date
	Fri May 25 12:06:32 2018
$end
$version
	ModelSim Version 10.1d
$end
$timescale
	1ps
$end
$scope module Subtractor_4_bits_vlg_vec_tst $end
$var reg 1 ! A0 $end
$var reg 1 " A1 $end
$var reg 1 # A2 $end
$var reg 1 $ A3 $end
$var reg 1 % B0 $end
$var reg 1 & B1 $end
$var reg 1 ' B2 $end
$var reg 1 ( B3 $end
$var wire 1 ) O $end
$var wire 1 * S0 $end
$var wire 1 + S1 $end
$var wire 1 , S2 $end
$var wire 1 - S3 $end
$var wire 1 . sampler $end
$scope module i1 $end
$var wire 1 / gnd $end
$var wire 1 0 vcc $end
$var wire 1 1 unknown $end
$var tri1 1 2 devclrn $end
$var tri1 1 3 devpor $end
$var tri1 1 4 devoe $end
$var wire 1 5 A2~combout $end
$var wire 1 6 B3~combout $end
$var wire 1 7 A3~combout $end
$var wire 1 8 inst3|inst~combout $end
$var wire 1 9 B0~combout $end
$var wire 1 : B1~combout $end
$var wire 1 ; A1~combout $end
$var wire 1 < inst1|inst7~combout $end
$var wire 1 = B2~combout $end
$var wire 1 > inst3|inst8~combout $end
$var wire 1 ? A0~combout $end
$var wire 1 @ inst|inst~0_combout $end
$var wire 1 A inst1|inst8~combout $end
$var wire 1 B inst2|inst8~combout $end
$var wire 1 C inst3|inst6~combout $end
$var wire 1 D inst3|inst7~combout $end
$upscope $end
$upscope $end
$enddefinitions $end
#0
$dumpvars
1!
0"
0#
0$
0%
0&
0'
0(
x)
x*
x+
x,
x-
x.
0/
10
x1
12
13
14
05
06
07
x8
09
0:
0;
x<
0=
x>
1?
x@
xA
xB
xC
xD
$end
#5005
1@
#5008
1<
#5130
08
#5150
1A
#5545
1B
#5761
1C
#5800
1>
#6459
1D
#8396
0+
#8605
1*
#8827
0,
#9714
1)
#10030
0-
#20000
1"
0!
1%
0.
#20852
0?
1;
#20912
19
#40000
1&
1!
0%
1.
#40852
1?
#40872
1:
#40912
09
#60000
1#
0"
0!
1%
0.
#60852
0?
0;
#60912
19
#60979
15
#63640
0B
#66053
0<
#66590
1B
#66922
1,
#69872
0,
#80000
1'
0&
1!
0%
1.
#80852
1?
#80872
0:
#80912
09
#80979
1=
#83340
0B
0>
0C
#84038
0D
#85880
1<
#86417
1B
1>
#86418
1C
#86622
1,
#87116
1D
#87293
0)
#87570
1-
#89699
0,
#90371
1)
#90647
0-
#100000
1"
0!
1%
0.
#100852
0?
1;
#100912
19
#120000
1&
1!
0%
1.
#120852
1?
#120872
1:
#120912
09
#140000
1$
0#
0"
0!
1%
0.
#140852
0?
0;
#140862
17
#140912
19
#140979
05
#143638
0C
#143640
0B
0>
#144336
0D
#145992
1D
18
#146053
0<
#146590
1B
#146662
1>
#146922
1,
#147870
1-
#149872
0,
#150892
0-
#160000
1(
0'
0&
1!
0%
1.
#160852
1?
#160862
16
#160872
0:
#160912
09
#160979
0=
#163340
0B
#165843
0D
#165844
08
#165880
1<
#166417
1B
#166418
1C
#166622
1,
#167116
1D
#169699
0,
#180000
1"
0!
1%
0.
#180852
0?
1;
#180912
19
#200000
1&
1!
0%
1.
#200852
1?
#200872
1:
#200912
09
#220000
1#
0"
0!
1%
0.
#220852
0?
0;
#220912
19
#220979
15
#223640
0B
#226053
0<
#226590
1B
#226922
1,
#229872
0,
#240000
1'
0&
1!
0%
1.
#240852
1?
#240872
0:
#240912
09
#240979
1=
#243340
0B
0>
0C
#244038
0D
#245880
1<
#246417
1B
1>
#246418
1C
#246622
1,
#247116
1D
#247293
0)
#247570
1-
#249699
0,
#250371
1)
#250647
0-
#260000
1"
0!
1%
0.
#260852
0?
1;
#260912
19
#280000
1&
1!
0%
1.
#280852
1?
#280872
1:
#280912
09
#300000
0$
0#
0"
0!
1%
0.
#300852
0?
0;
#300862
07
#300912
19
#300979
05
#303638
0C
#303640
0B
0>
#304336
0D
#305992
18
#306053
0<
#306590
1B
#306662
1>
#306922
1,
#307591
0)
#307870
1-
#309872
0,
#310892
0-
#320000
0(
0'
0&
1!
0%
1.
#320852
1?
#320862
06
#320872
0:
#320912
09
#320979
0=
#323340
0B
#325844
08
#325880
1<
#326417
1B
#326418
1C
#326622
1,
#327116
1D
#329699
0,
#330371
1)
#340000
1"
0!
1%
0.
#340852
0?
1;
#340912
19
#360000
1&
1!
0%
1.
#360852
1?
#360872
1:
#360912
09
#380000
1#
0"
0!
1%
0.
#380852
0?
0;
#380912
19
#380979
15
#383640
0B
#386053
0<
#386590
1B
#386922
1,
#389872
0,
#400000
1'
0&
1!
0%
1.
#400852
1?
#400872
0:
#400912
09
#400979
1=
#403340
0B
0>
0C
#404038
0D
#405880
1<
#406417
1B
1>
#406418
1C
#406622
1,
#407116
1D
#407293
0)
#407570
1-
#409699
0,
#410371
1)
#410647
0-
#420000
1"
0!
1%
0.
#420852
0?
1;
#420912
19
#440000
1&
1!
0%
1.
#440852
1?
#440872
1:
#440912
09
#460000
1$
0#
0"
0!
1%
0.
#460852
0?
0;
#460862
17
#460912
19
#460979
05
#463638
0C
#463640
0B
0>
#464336
0D
#465992
1D
18
#466053
0<
#466590
1B
#466662
1>
#466922
1,
#467870
1-
#469872
0,
#470892
0-
#480000
1(
0'
0&
1!
0%
1.
#480852
1?
#480862
16
#480872
0:
#480912
09
#480979
0=
#483340
0B
#485843
0D
#485844
08
#485880
1<
#486417
1B
#486418
1C
#486622
1,
#487116
1D
#489699
0,
#500000
1"
0!
1%
0.
#500852
0?
1;
#500912
19
#520000
1&
1!
0%
1.
#520852
1?
#520872
1:
#520912
09
#540000
1#
0"
0!
1%
0.
#540852
0?
0;
#540912
19
#540979
15
#543640
0B
#546053
0<
#546590
1B
#546922
1,
#549872
0,
#560000
1'
0&
1!
0%
1.
#560852
1?
#560872
0:
#560912
09
#560979
1=
#563340
0B
0>
0C
#564038
0D
#565880
1<
#566417
1B
1>
#566418
1C
#566622
1,
#567116
1D
#567293
0)
#567570
1-
#569699
0,
#570371
1)
#570647
0-
#580000
1"
0!
1%
0.
#580852
0?
1;
#580912
19
#600000
1&
1!
0%
1.
#600852
1?
#600872
1:
#600912
09
#620000
0$
0#
0"
0!
1%
0.
#620852
0?
0;
#620862
07
#620912
19
#620979
05
#623638
0C
#623640
0B
0>
#624336
0D
#625992
18
#626053
0<
#626590
1B
#626662
1>
#626922
1,
#627591
0)
#627870
1-
#629872
0,
#630892
0-
#640000
0(
0'
0&
1!
0%
1.
#640852
1?
#640862
06
#640872
0:
#640912
09
#640979
0=
#643340
0B
#645844
08
#645880
1<
#646417
1B
#646418
1C
#646622
1,
#647116
1D
#649699
0,
#650371
1)
#660000
1"
0!
1%
0.
#660852
0?
1;
#660912
19
#680000
1&
1!
0%
1.
#680852
1?
#680872
1:
#680912
09
#700000
1#
0"
0!
1%
0.
#700852
0?
0;
#700912
19
#700979
15
#703640
0B
#706053
0<
#706590
1B
#706922
1,
#709872
0,
#720000
1'
0&
1!
0%
1.
#720852
1?
#720872
0:
#720912
09
#720979
1=
#723340
0B
0>
0C
#724038
0D
#725880
1<
#726417
1B
1>
#726418
1C
#726622
1,
#727116
1D
#727293
0)
#727570
1-
#729699
0,
#730371
1)
#730647
0-
#740000
1"
0!
1%
0.
#740852
0?
1;
#740912
19
#760000
1&
1!
0%
1.
#760852
1?
#760872
1:
#760912
09
#780000
1$
0#
0"
0!
1%
0.
#780852
0?
0;
#780862
17
#780912
19
#780979
05
#783638
0C
#783640
0B
0>
#784336
0D
#785992
1D
18
#786053
0<
#786590
1B
#786662
1>
#786922
1,
#787870
1-
#789872
0,
#790892
0-
#800000
1(
0'
0&
1!
0%
1.
#800852
1?
#800862
16
#800872
0:
#800912
09
#800979
0=
#803340
0B
#805843
0D
#805844
08
#805880
1<
#806417
1B
#806418
1C
#806622
1,
#807116
1D
#809699
0,
#820000
1"
0!
1%
0.
#820852
0?
1;
#820912
19
#840000
1&
1!
0%
1.
#840852
1?
#840872
1:
#840912
09
#860000
1#
0"
0!
1%
0.
#860852
0?
0;
#860912
19
#860979
15
#863640
0B
#866053
0<
#866590
1B
#866922
1,
#869872
0,
#880000
1'
0&
1!
0%
1.
#880852
1?
#880872
0:
#880912
09
#880979
1=
#883340
0B
0>
0C
#884038
0D
#885880
1<
#886417
1B
1>
#886418
1C
#886622
1,
#887116
1D
#887293
0)
#887570
1-
#889699
0,
#890371
1)
#890647
0-
#900000
1"
0!
1%
0.
#900852
0?
1;
#900912
19
#920000
1&
1!
0%
1.
#920852
1?
#920872
1:
#920912
09
#940000
0$
0#
0"
0!
1%
0.
#940852
0?
0;
#940862
07
#940912
19
#940979
05
#943638
0C
#943640
0B
0>
#944336
0D
#945992
18
#946053
0<
#946590
1B
#946662
1>
#946922
1,
#947591
0)
#947870
1-
#949872
0,
#950892
0-
#960000
0(
0'
0&
1!
0%
1.
#960852
1?
#960862
06
#960872
0:
#960912
09
#960979
0=
#963340
0B
#965844
08
#965880
1<
#966417
1B
#966418
1C
#966622
1,
#967116
1D
#969699
0,
#970371
1)
#980000
1"
0!
1%
0.
#980852
0?
1;
#980912
19
