Calculadora/simulation/qsim/Calculadora.msim.vcd
$comment
	File created using the following command:
		vcd file Calculadora.msim.vcd -direction
$end
$date
	Fri May 25 00:15:56 2018
$end
$version
	ModelSim Version 10.1d
$end
$timescale
	1ps
$end
$scope module Full_Adder_4_bits_vlg_vec_tst $end
$var reg 1 ! A0 $end
$var reg 1 " A1 $end
$var reg 1 # A2 $end
$var reg 1 $ A3 $end
$var reg 1 % B0 $end
$var reg 1 & B1 $end
$var reg 1 ' B2 $end
$var reg 1 ( B3 $end
$var wire 1 ) O $end
$var wire 1 * S0 $end
$var wire 1 + S1 $end
$var wire 1 , S2 $end
$var wire 1 - S3 $end
$var wire 1 . sampler $end
$scope module i1 $end
$var wire 1 / gnd $end
$var wire 1 0 vcc $end
$var wire 1 1 unknown $end
$var tri1 1 2 devclrn $end
$var tri1 1 3 devpor $end
$var tri1 1 4 devoe $end
$var wire 1 5 A3~combout $end
$var wire 1 6 B2~combout $end
$var wire 1 7 A2~combout $end
$var wire 1 8 inst6|inst7~0_combout $end
$var wire 1 9 B3~combout $end
$var wire 1 : B0~combout $end
$var wire 1 ; A0~combout $end
$var wire 1 < A1~combout $end
$var wire 1 = inst7|inst7~0_combout $end
$var wire 1 > inst6|inst7~1_combout $end
$var wire 1 ? inst|inst8~combout $end
$var wire 1 @ inst5|inst~combout $end
$var wire 1 A B1~combout $end
$var wire 1 B inst7|inst8~0_combout $end
$var wire 1 C inst6|inst8~0_combout $end
$var wire 1 D inst|inst7~0_combout $end
$upscope $end
$upscope $end
$enddefinitions $end
#0
$dumpvars
0!
0"
0#
0$
0%
0&
0'
0(
x)
x*
x+
x,
x-
x.
0/
10
x1
12
13
14
05
06
07
x8
09
0:
0;
0<
x=
x>
x?
x@
0A
xB
xC
xD
$end
#2656
0D
#5002
08
#5019
0@
#5126
0B
#5154
0>
#5157
0=
#5550
0?
#5832
0C
#5914
0)
#8581
0*
#8690
0+
#9113
0,
#9839
0-
#20000
1!
1%
0.
#20872
1;
#20912
1:
#26067
1B
#29631
1+
#40000
1"
1&
0!
0%
1.
#40862
1A
1<
#40872
0;
#40912
0:
#45988
0B
#45992
1=
#46667
1C
#49552
0+
#49948
1,
#60000
1!
1%
0.
#60872
1;
#60912
1:
#66067
1B
#69631
1+
#80000
1#
1'
0"
0&
0!
0%
1.
#80852
16
17
#80862
0A
0<
#80872
0;
#80912
0:
#85860
1>
#85895
0=
#85988
0B
#86005
18
#86256
1?
#86567
0>
#86570
0C
#89552
0+
#89851
0,
#90545
1-
#100000
1!
1%
0.
#100872
1;
#100912
1:
#106067
1B
#109631
1+
#120000
1"
1&
0!
0%
1.
#120862
1A
1<
#120872
0;
#120912
0:
#125988
0B
#125992
1=
#126664
1>
#126667
1C
#129552
0+
#129948
1,
#140000
1!
1%
0.
#140872
1;
#140912
1:
#146067
1B
#149631
1+
#160000
1$
1(
0#
0'
0"
0&
0!
0%
1.
#160852
06
07
#160862
0A
0<
#160872
0;
#160912
0:
#160979
19
15
#163379
1D
#165854
08
#165895
0=
#165988
0B
#166006
0>
#166402
0?
#166570
0C
#166637
1)
#169552
0+
#169851
0,
#170691
0-
#180000
1!
1%
0.
#180872
1;
#180912
1:
#186067
1B
#189631
1+
#200000
1"
1&
0!
0%
1.
#200862
1A
1<
#200872
0;
#200912
0:
#205988
0B
#205992
1=
#206667
1C
#209552
0+
#209948
1,
#220000
1!
1%
0.
#220872
1;
#220912
1:
#226067
1B
#229631
1+
#240000
1#
1'
0"
0&
0!
0%
1.
#240852
16
17
#240862
0A
0<
#240872
0;
#240912
0:
#245860
1>
#245895
0=
#245988
0B
#246005
18
#246256
1?
#246567
0>
#246570
0C
#249552
0+
#249851
0,
#250545
1-
#260000
1!
1%
0.
#260872
1;
#260912
1:
#266067
1B
#269631
1+
#280000
1"
1&
0!
0%
1.
#280862
1A
1<
#280872
0;
#280912
0:
#285988
0B
#285992
1=
#286664
1>
#286667
1C
#289552
0+
#289948
1,
#300000
1!
1%
0.
#300872
1;
#300912
1:
#306067
1B
#309631
1+
#320000
0$
0(
0#
0'
0"
0&
0!
0%
1.
#320852
06
07
#320862
0A
0<
#320872
0;
#320912
0:
#320979
09
05
#323635
0D
#325854
08
#325895
0=
#325988
0B
#326006
0>
#326402
0?
#326570
0C
#326893
0)
#329552
0+
#329851
0,
#330691
0-
#340000
1!
1%
0.
#340872
1;
#340912
1:
#346067
1B
#349631
1+
#360000
1"
1&
0!
0%
1.
#360862
1A
1<
#360872
0;
#360912
0:
#365988
0B
#365992
1=
#366667
1C
#369552
0+
#369948
1,
#380000
1!
1%
0.
#380872
1;
#380912
1:
#386067
1B
#389631
1+
#400000
1#
1'
0"
0&
0!
0%
1.
#400852
16
17
#400862
0A
0<
#400872
0;
#400912
0:
#405860
1>
#405895
0=
#405988
0B
#406005
18
#406256
1?
#406567
0>
#406570
0C
#409552
0+
#409851
0,
#410545
1-
#420000
1!
1%
0.
#420872
1;
#420912
1:
#426067
1B
#429631
1+
#440000
1"
1&
0!
0%
1.
#440862
1A
1<
#440872
0;
#440912
0:
#445988
0B
#445992
1=
#446664
1>
#446667
1C
#449552
0+
#449948
1,
#460000
1!
1%
0.
#460872
1;
#460912
1:
#466067
1B
#469631
1+
#480000
1$
1(
0#
0'
0"
0&
0!
0%
1.
#480852
06
07
#480862
0A
0<
#480872
0;
#480912
0:
#480979
19
15
#483379
1D
#485854
08
#485895
0=
#485988
0B
#486006
0>
#486402
0?
#486570
0C
#486637
1)
#489552
0+
#489851
0,
#490691
0-
#500000
1!
1%
0.
#500872
1;
#500912
1:
#506067
1B
#509631
1+
#520000
1"
1&
0!
0%
1.
#520862
1A
1<
#520872
0;
#520912
0:
#525988
0B
#525992
1=
#526667
1C
#529552
0+
#529948
1,
#540000
1!
1%
0.
#540872
1;
#540912
1:
#546067
1B
#549631
1+
#560000
1#
1'
0"
0&
0!
0%
1.
#560852
16
17
#560862
0A
0<
#560872
0;
#560912
0:
#565860
1>
#565895
0=
#565988
0B
#566005
18
#566256
1?
#566567
0>
#566570
0C
#569552
0+
#569851
0,
#570545
1-
#580000
1!
1%
0.
#580872
1;
#580912
1:
#586067
1B
#589631
1+
#600000
1"
1&
0!
0%
1.
#600862
1A
1<
#600872
0;
#600912
0:
#605988
0B
#605992
1=
#606664
1>
#606667
1C
#609552
0+
#609948
1,
#620000
1!
1%
0.
#620872
1;
#620912
1:
#626067
1B
#629631
1+
#640000
0$
0(
0#
0'
0"
0&
0!
0%
1.
#640852
06
07
#640862
0A
0<
#640872
0;
#640912
0:
#640979
09
05
#643635
0D
#645854
08
#645895
0=
#645988
0B
#646006
0>
#646402
0?
#646570
0C
#646893
0)
#649552
0+
#649851
0,
#650691
0-
#660000
1!
1%
0.
#660872
1;
#660912
1:
#666067
1B
#669631
1+
#680000
1"
1&
0!
0%
1.
#680862
1A
1<
#680872
0;
#680912
0:
#685988
0B
#685992
1=
#686667
1C
#689552
0+
#689948
1,
#700000
1!
1%
0.
#700872
1;
#700912
1:
#706067
1B
#709631
1+
#720000
1#
1'
0"
0&
0!
0%
1.
#720852
16
17
#720862
0A
0<
#720872
0;
#720912
0:
#725860
1>
#725895
0=
#725988
0B
#726005
18
#726256
1?
#726567
0>
#726570
0C
#729552
0+
#729851
0,
#730545
1-
#740000
1!
1%
0.
#740872
1;
#740912
1:
#746067
1B
#749631
1+
#760000
1"
1&
0!
0%
1.
#760862
1A
1<
#760872
0;
#760912
0:
#765988
0B
#765992
1=
#766664
1>
#766667
1C
#769552
0+
#769948
1,
#780000
1!
1%
0.
#780872
1;
#780912
1:
#786067
1B
#789631
1+
#800000
1$
1(
0#
0'
0"
0&
0!
0%
1.
#800852
06
07
#800862
0A
0<
#800872
0;
#800912
0:
#800979
19
15
#803379
1D
#805854
08
#805895
0=
#805988
0B
#806006
0>
#806402
0?
#806570
0C
#806637
1)
#809552
0+
#809851
0,
#810691
0-
#820000
1!
1%
0.
#820872
1;
#820912
1:
#826067
1B
#829631
1+
#840000
1"
1&
0!
0%
1.
#840862
1A
1<
#840872
0;
#840912
0:
#845988
0B
#845992
1=
#846667
1C
#849552
0+
#849948
1,
#860000
1!
1%
0.
#860872
1;
#860912
1:
#866067
1B
#869631
1+
#880000
1#
1'
0"
0&
0!
0%
1.
#880852
16
17
#880862
0A
0<
#880872
0;
#880912
0:
#885860
1>
#885895
0=
#885988
0B
#886005
18
#886256
1?
#886567
0>
#886570
0C
#889552
0+
#889851
0,
#890545
1-
#900000
1!
1%
0.
#900872
1;
#900912
1:
#906067
1B
#909631
1+
#920000
1"
1&
0!
0%
1.
#920862
1A
1<
#920872
0;
#920912
0:
#925988
0B
#925992
1=
#926664
1>
#926667
1C
#929552
0+
#929948
1,
#940000
1!
1%
0.
#940872
1;
#940912
1:
#946067
1B
#949631
1+
#960000
0$
0(
0#
0'
0"
0&
0!
0%
1.
#960852
06
07
#960862
0A
0<
#960872
0;
#960912
0:
#960979
09
05
#963635
0D
#965854
08
#965895
0=
#965988
0B
#966006
0>
#966402
0?
#966570
0C
#966893
0)
#969552
0+
#969851
0,
#970691
0-
#980000
1!
1%
0.
#980872
1;
#980912
1:
#986067
1B
#989631
1+
