Calculadora/simulation/qsim/ULA.msim.vcd
$comment
	File created using the following command:
		vcd file ULA.msim.vcd -direction
$end
$date
	Thu May 31 11:32:21 2018
$end
$version
	ModelSim Version 10.1d
$end
$timescale
	1ps
$end
$scope module mux2_vlg_vec_tst $end
$var reg 1 ! E0 $end
$var reg 1 " E1 $end
$var reg 1 # OPT $end
$var wire 1 $ F $end
$var wire 1 % sampler $end
$scope module i1 $end
$var wire 1 & gnd $end
$var wire 1 ' vcc $end
$var wire 1 ( unknown $end
$var tri1 1 ) devclrn $end
$var tri1 1 * devpor $end
$var tri1 1 + devoe $end
$var wire 1 , OPT~combout $end
$var wire 1 - E1~combout $end
$var wire 1 . E0~combout $end
$var wire 1 / inst3~0_combout $end
$upscope $end
$upscope $end
$enddefinitions $end
#0
$dumpvars
0!
1"
0#
x$
x%
0&
1'
x(
1)
1*
1+
0,
1-
0.
x/
$end
#5246
0/
#8613
0$
#25000
1#
0%
#25840
1,
#31086
1/
#34453
1$
#50000
1!
0"
0#
1%
#50840
0,
#50979
0-
1.
#52040
0/
#55407
0$
#56086
1/
#59453
1$
#75000
1#
0%
#75840
1,
#81086
0/
#84453
0$
#100000
0!
1"
0#
1%
#100840
0,
#100979
1-
0.
#102040
1/
#105407
1$
#106086
0/
#109453
0$
#125000
1#
0%
#125840
1,
#131086
1/
#134453
1$
#150000
1!
0"
0#
1%
#150840
0,
#150979
0-
1.
#152040
0/
#155407
0$
#156086
1/
#159453
1$
#175000
1#
0%
#175840
1,
#181086
0/
#184453
0$
#200000
0!
1"
0#
1%
#200840
0,
#200979
1-
0.
#202040
1/
#205407
1$
#206086
0/
#209453
0$
#225000
1#
0%
#225840
1,
#231086
1/
#234453
1$
#250000
1!
0"
0#
1%
#250840
0,
#250979
0-
1.
#252040
0/
#255407
0$
#256086
1/
#259453
1$
#275000
1#
0%
#275840
1,
#281086
0/
#284453
0$
#300000
0!
1"
0#
1%
#300840
0,
#300979
1-
0.
#302040
1/
#305407
1$
#306086
0/
#309453
0$
#325000
1#
0%
#325840
1,
#331086
1/
#334453
1$
#350000
1!
0"
0#
1%
#350840
0,
#350979
0-
1.
#352040
0/
#355407
0$
#356086
1/
#359453
1$
#375000
1#
0%
#375840
1,
#381086
0/
#384453
0$
#400000
0!
1"
0#
1%
#400840
0,
#400979
1-
0.
#402040
1/
#405407
1$
#406086
0/
#409453
0$
#425000
1#
0%
#425840
1,
#431086
1/
#434453
1$
#450000
1!
0"
0#
1%
#450840
0,
#450979
0-
1.
#452040
0/
#455407
0$
#456086
1/
#459453
1$
#475000
1#
0%
#475840
1,
#481086
0/
#484453
0$
#500000
0!
1"
0#
1%
#500840
0,
#500979
1-
0.
#502040
1/
#505407
1$
#506086
0/
#509453
0$
#525000
1#
0%
#525840
1,
#531086
1/
#534453
1$
#550000
1!
0"
0#
1%
#550840
0,
#550979
0-
1.
#552040
0/
#555407
0$
#556086
1/
#559453
1$
#575000
1#
0%
#575840
1,
#581086
0/
#584453
0$
#600000
0!
1"
0#
1%
#600840
0,
#600979
1-
0.
#602040
1/
#605407
1$
#606086
0/
#609453
0$
#625000
1#
0%
#625840
1,
#631086
1/
#634453
1$
#650000
1!
0"
0#
1%
#650840
0,
#650979
0-
1.
#652040
0/
#655407
0$
#656086
1/
#659453
1$
#675000
1#
0%
#675840
1,
#681086
0/
#684453
0$
#700000
0!
1"
0#
1%
#700840
0,
#700979
1-
0.
#702040
1/
#705407
1$
#706086
0/
#709453
0$
#725000
1#
0%
#725840
1,
#731086
1/
#734453
1$
#750000
1!
0"
0#
1%
#750840
0,
#750979
0-
1.
#752040
0/
#755407
0$
#756086
1/
#759453
1$
#775000
1#
0%
#775840
1,
#781086
0/
#784453
0$
#800000
0!
1"
0#
1%
#800840
0,
#800979
1-
0.
#802040
1/
#805407
1$
#806086
0/
#809453
0$
#825000
1#
0%
#825840
1,
#831086
1/
#834453
1$
#850000
1!
0"
0#
1%
#850840
0,
#850979
0-
1.
#852040
0/
#855407
0$
#856086
1/
#859453
1$
#875000
1#
0%
#875840
1,
#881086
0/
#884453
0$
#900000
0!
1"
0#
1%
#900840
0,
#900979
1-
0.
#902040
1/
#905407
1$
#906086
0/
#909453
0$
#925000
1#
0%
#925840
1,
#931086
1/
#934453
1$
#950000
1!
0"
0#
1%
#950840
0,
#950979
0-
1.
#952040
0/
#955407
0$
#956086
1/
#959453
1$
#975000
1#
0%
#975840
1,
#981086
0/
#984453
0$
