Calculadora/simulation/qsim/ULA.msim.vcd
$comment
	File created using the following command:
		vcd file ULA.msim.vcd -direction
$end
$date
	Thu Jul 05 14:41:37 2018
$end
$version
	ModelSim Version 10.1d
$end
$timescale
	1ps
$end
$scope module ULA_vlg_vec_tst $end
$var reg 1 ! A0 $end
$var reg 1 " A1 $end
$var reg 1 # A2 $end
$var reg 1 $ A3 $end
$var reg 1 % B0 $end
$var reg 1 & B1 $end
$var reg 1 ' B2 $end
$var reg 1 ( B3 $end
$var reg 1 ) OPT0 $end
$var reg 1 * OPT1 $end
$var wire 1 + S0 $end
$var wire 1 , S1 $end
$var wire 1 - S2 $end
$var wire 1 . S3 $end
$var wire 1 / S4 $end
$var wire 1 0 S5 $end
$var wire 1 1 S6 $end
$var wire 1 2 S7 $end
$var wire 1 3 sampler $end
$scope module i1 $end
$var wire 1 4 gnd $end
$var wire 1 5 vcc $end
$var wire 1 6 unknown $end
$var tri1 1 7 devclrn $end
$var tri1 1 8 devpor $end
$var tri1 1 9 devoe $end
$var wire 1 : inst4|inst1|inst3~0_combout $end
$var wire 1 ; inst4|inst1|inst3~combout $end
$var wire 1 < inst4|inst24|inst2~0_combout $end
$var wire 1 = inst4|inst28~combout $end
$var wire 1 > B0~combout $end
$var wire 1 ? A0~combout $end
$var wire 1 @ OPT1~combout $end
$var wire 1 A inst5|inst|inst3~0_combout $end
$var wire 1 B A1~combout $end
$var wire 1 C inst4|inst|inst1~combout $end
$var wire 1 D OPT0~combout $end
$var wire 1 E inst3|inst3|inst2~0_combout $end
$var wire 1 F inst3|inst2|inst~combout $end
$var wire 1 G inst5|inst1|inst3~0_combout $end
$var wire 1 H inst4|inst|inst3~combout $end
$var wire 1 I B1~combout $end
$var wire 1 J inst4|inst6~combout $end
$var wire 1 K inst4|inst14|inst~combout $end
$var wire 1 L inst3|inst2|inst2~0_combout $end
$var wire 1 M A2~combout $end
$var wire 1 N inst3|inst1|inst~0_combout $end
$var wire 1 O B2~combout $end
$var wire 1 P inst4|inst22~combout $end
$var wire 1 Q inst5|inst2|inst3~0_combout $end
$var wire 1 R B3~combout $end
$var wire 1 S inst3|inst1|inst2~0_combout $end
$var wire 1 T inst3|inst|inst~0_combout $end
$var wire 1 U A3~combout $end
$var wire 1 V inst4|inst15|inst1~combout $end
$var wire 1 W inst4|inst21~combout $end
$var wire 1 X inst4|inst14|inst2~0_combout $end
$var wire 1 Y inst4|inst24|inst~combout $end
$var wire 1 Z inst4|inst35~combout $end
$var wire 1 [ inst5|inst3|inst3~0_combout $end
$var wire 1 \ inst4|inst29~combout $end
$var wire 1 ] inst4|inst4~combout $end
$var wire 1 ^ inst4|inst25|inst1~combout $end
$var wire 1 _ inst4|inst39|inst3~0_combout $end
$var wire 1 ` inst4|inst39|inst3~1_combout $end
$var wire 1 a inst4|inst37|inst~combout $end
$var wire 1 b inst3|inst|inst2~0_combout $end
$var wire 1 c inst5|inst4|inst3~0_combout $end
$var wire 1 d inst4|inst5~combout $end
$var wire 1 e inst4|inst15|inst2~0_combout $end
$var wire 1 f inst4|inst26|inst1~combout $end
$var wire 1 g inst4|inst37|inst2~0_combout $end
$var wire 1 h inst4|inst20~combout $end
$var wire 1 i inst4|inst25|inst2~0_combout $end
$var wire 1 j inst4|inst36|inst~combout $end
$var wire 1 k inst5|inst5|inst3~0_combout $end
$var wire 1 l inst4|inst18~combout $end
$var wire 1 m inst4|inst26|inst2~0_combout $end
$var wire 1 n inst4|inst36|inst2~0_combout $end
$var wire 1 o inst4|inst38|inst~0_combout $end
$var wire 1 p inst5|inst6|inst3~0_combout $end
$var wire 1 q inst4|inst38|inst2~0_combout $end
$var wire 1 r inst5|inst7|inst3~0_combout $end
$upscope $end
$upscope $end
$enddefinitions $end
#0
$dumpvars
0!
0"
0#
0$
0%
0&
0'
0(
0)
0*
0+
0,
0-
0.
0/
00
01
02
x3
04
15
x6
17
18
19
0:
0;
0<
0=
0>
0?
0@
0A
0B
0C
0D
0E
0F
0G
0H
0I
0J
0K
0L
0M
0N
0O
0P
0Q
0R
0S
0T
0U
0V
0W
0X
0Y
0Z
0[
0\
0]
0^
0_
0`
0a
0b
0c
0d
0e
0f
0g
0h
0i
0j
0k
0l
0m
0n
0o
0p
0q
0r
$end
#10000
1(
1R
03
1T
1[
1.
#20000
1'
0(
1O
0R
13
1N
0T
1Q
0[
1-
0.
#30000
1(
1R
03
1T
1[
1.
#40000
1&
0'
0(
1I
0O
0R
13
1F
0N
0T
1G
0Q
0[
1,
0-
0.
#50000
1(
1R
03
1T
1[
1.
#60000
1'
0(
1O
0R
13
1N
0T
1Q
0[
1-
0.
#70000
1(
1R
03
1T
1[
1.
#80000
1%
0&
0'
0(
1>
0I
0O
0R
13
1A
0F
0N
0T
0G
0Q
0[
1+
0,
0-
0.
#90000
1(
1R
03
1T
1[
1.
#100000
1$
0%
0(
1U
0>
0R
13
0A
0+
#110000
1(
1R
03
1o
1b
0T
1c
0[
1/
0.
#120000
1'
0(
1O
0R
13
1l
1f
1N
0o
0b
1T
1j
1Q
0c
1[
1-
0/
1.
#130000
1(
1R
03
1o
1b
0T
1c
0[
1/
0.
#140000
1&
0'
0(
1I
0O
0R
13
0f
1]
1F
0l
0N
0o
0b
1T
0j
1^
1G
0Q
0c
1[
1a
1,
0-
0/
1.
#150000
1(
1R
03
1o
1b
0T
1c
0[
1/
0.
#160000
1'
0(
1O
0R
13
1l
1f
1N
0o
0b
1T
1j
1Q
0c
1[
1-
0/
1.
#170000
1(
1R
03
1o
1b
0T
1c
0[
1/
0.
#180000
1%
0&
0'
0(
1>
0I
0O
0R
13
1V
1A
0f
0]
0F
0l
0N
0o
0b
1T
1_
1Y
0j
0^
0G
0Q
0c
1[
1+
0a
0,
0-
0/
1.
#190000
1(
1R
03
1o
1b
0T
1c
0[
1/
0.
#200000
1#
0$
0%
0(
1M
0U
0>
0R
13
0V
1N
0o
0b
0A
0_
0Y
1Q
0c
0+
1-
0/
#210000
1(
1R
03
1T
1=
1[
1j
1.
#220000
1'
0(
1O
0R
13
1h
1^
1S
0N
0T
0=
1a
1T
0Q
0[
0j
1[
0-
0.
1.
#230000
1(
1R
03
1b
0T
1=
1c
0[
1j
1/
0.
#240000
1&
0'
0(
1I
0O
0R
13
1d
1V
1F
0h
0^
0S
1N
0b
1T
0=
1_
1Y
1G
0a
0T
1Q
0c
1[
0j
0[
1,
1-
0/
1.
0.
#250000
1(
1R
03
1T
1=
1[
1j
1.
#260000
1'
0(
1O
0R
13
1h
1^
1S
0N
0T
0=
1a
1T
0Q
0[
0j
1[
0-
0.
1.
#270000
1(
1R
03
1b
0T
1=
1c
0[
1j
1/
0.
#280000
1%
0&
0'
0(
1>
0I
0O
0R
13
0V
1K
1A
1:
0d
0F
0h
0^
0S
1N
0b
1T
0=
0_
0Y
1Q
0G
0a
0T
0c
1[
0j
1+
0[
1-
0,
0/
1.
0.
#290000
1(
1R
03
1T
1=
1[
1j
1.
#300000
1$
0%
0(
1U
0>
0R
13
0K
0A
0:
0=
0j
0+
#310000
1(
1R
03
1o
1b
0T
1=
1c
0[
1j
1/
0.
#320000
1'
0(
1O
0R
13
1l
1h
1f
1^
1S
0N
0o
0b
1T
0=
1a
1b
0T
0Q
0c
1[
1c
0[
0-
0/
1.
1/
0.
#330000
1(
1R
03
1o
1T
1=
1[
1n
0j
1q
0o
1.
#340000
1&
0'
0(
1I
0O
0R
13
0f
1d
1]
1V
1F
0l
0h
0^
0S
1N
0q
1o
0T
0=
0n
1^
1_
1Y
1G
0a
0b
1T
1Q
0[
0o
1a
1[
0c
1,
1-
0.
1.
0/
#350000
1(
1R
03
1o
1b
0T
1=
1c
0[
1j
1/
0.
#360000
1'
0(
1O
0R
13
1l
1h
1f
0^
1S
0N
0o
0b
1T
0=
1i
0a
1b
0T
0Q
0c
1[
1m
0j
1c
0[
0-
0/
1.
1o
1/
0.
#370000
1(
1R
03
1q
0o
1T
1=
1[
1j
1.
#380000
1%
0&
0'
0(
1>
0I
0O
0R
13
1e
1K
1A
1:
0f
0d
0]
0F
0l
0h
1^
0S
1N
0q
1o
0T
0=
0m
0i
1Q
0e
0G
1a
0b
1T
0[
1+
0o
0j
0^
0c
1[
1-
0,
0.
0a
0/
1.
#390000
1(
1R
03
1o
1b
0T
1=
1c
0[
1j
1/
0.
#400000
1"
0#
0$
0%
0(
1B
0M
0U
0>
0R
13
1F
0:
0V
0N
0K
0=
0o
0b
0A
1G
0_
0Y
0Q
0j
0c
0+
1,
0-
0/
#410000
1(
1R
03
1\
1T
1a
1[
1.
#420000
1'
0(
1O
0R
13
1W
1N
0\
0T
1Y
1Q
0a
0[
1-
0.
#430000
1(
1R
03
1\
1T
1a
1[
1.
#440000
1&
0'
0(
1I
0O
0R
13
1L
1J
0F
1:
0W
0N
0\
0T
1N
1K
0G
0Y
0Q
0a
0[
1Q
0,
0-
0.
1-
#450000
1(
1R
03
1\
1T
1a
1[
1.
#460000
1'
0(
1O
0R
13
1W
1S
0N
0\
0T
1Y
1T
0Q
0a
0[
1[
0-
0.
1.
#470000
1(
1R
03
1b
1\
0T
1c
1a
0[
1/
0.
#480000
1%
0&
0'
0(
1>
0I
0O
0R
13
1C
1A
0:
0L
0J
1F
0W
0S
1N
0b
0\
1T
1G
0N
0K
0Y
0T
1Q
0c
0a
1[
1+
0Q
0[
1,
1-
0/
1.
0-
0.
#490000
1(
1R
03
1\
1T
1a
1[
1.
#500000
1$
0%
0(
1U
0>
0R
13
0C
0A
0\
0a
0+
#510000
1(
1R
03
1o
1b
1\
0T
1c
1a
0[
1/
0.
#520000
1'
0(
1O
0R
13
1l
1f
1W
1N
0o
0b
0\
1T
1j
1Y
1Q
0c
0a
1[
1-
0/
1.
#530000
1(
1R
03
1o
1b
1\
0T
1c
1a
0[
1/
0.
#540000
1&
0'
0(
1I
0O
0R
13
0f
1]
1L
1J
0F
1:
0l
0W
0N
0o
0b
0\
1T
0j
1^
1N
1K
0G
0Y
0Q
0c
0a
1[
1a
1Q
0,
0-
0/
1.
1-
#550000
1(
1R
03
1o
1b
1\
0T
1c
1g
0a
0[
1j
1/
0.
#560000
1'
0(
1O
0R
13
1l
1f
1W
1S
0N
0o
0b
0\
1T
1n
0j
1Y
1b
0T
0Q
0c
0g
1a
1[
1o
0[
1c
0n
1j
0-
0/
1.
0o
0.
1/
#570000
1(
1R
03
1o
1\
1T
1g
0a
1[
1n
0j
1.
1q
0o
#580000
1%
0&
0'
0(
1>
0I
0O
0R
13
1V
1C
1A
0:
0f
0]
0L
0J
1F
0l
0W
0S
1N
0q
1o
0\
0T
1_
1G
0n
1j
0^
0N
0K
0b
1T
1Q
0g
1a
0[
1+
0o
0a
0Q
0c
1[
0j
1,
1-
0.
0-
0/
1.
#590000
1(
1R
03
1o
1b
1\
0T
1c
1a
0[
1/
0.
#600000
1#
0$
0%
0(
1M
0U
0>
0R
13
0V
1N
0o
0b
0C
0A
0\
0_
0Y
1Q
0c
0a
0+
1-
0/
#610000
1(
1R
03
1\
1T
1=
1a
1[
1j
1.
#620000
1'
0(
1O
0R
13
1h
1^
1W
1S
0N
0\
0T
0=
1Y
1T
0Q
0[
0j
1[
0-
0.
1.
#630000
1(
1R
03
1b
1\
0T
1=
1c
1g
0a
0[
1j
1n
0j
1/
0.
1o
#640000
1&
0'
0(
1I
0O
0R
13
1d
1V
1L
1J
0F
1:
0h
0^
0W
0S
1N
0b
0\
1T
0=
1_
1S
0N
1K
0G
0g
0T
1Q
0c
1[
0n
1j
1T
0Q
0j
0[
0o
0,
1-
0/
1.
1[
0-
0.
1.
#650000
1(
1R
03
1b
1\
0T
1=
1c
1a
0[
1j
1/
0.
#660000
1'
0(
1O
0R
13
1h
1^
1W
1N
0b
0\
1T
0=
0Y
1<
1Q
0c
1[
0j
1i
0a
1-
0/
1.
1j
#670000
1(
1R
03
1b
1\
0T
1=
1c
1a
0[
1n
0j
1o
1/
0.
#680000
1%
0&
0'
0(
1>
0I
0O
0R
13
1X
0V
0K
1C
1A
0d
0L
0J
1F
0h
0^
0W
0N
0b
0\
1T
0=
1Y
0<
0Q
1G
0S
1N
0X
1K
0i
0c
1[
0n
1j
1+
0a
0T
1Q
0_
0Y
0j
0o
0-
1,
0/
1.
0[
1-
0.
#690000
1(
1R
03
1\
1T
1=
1a
1[
1j
1.
#700000
1$
0%
0(
1U
0>
0R
13
0K
0C
0A
0:
0\
0=
0a
0j
0+
#710000
1(
1R
03
1o
1b
1\
0T
1=
1c
1a
0[
1j
1/
0.
#720000
1'
0(
1O
0R
13
1l
1h
1f
1^
1W
1S
0N
0o
0b
0\
1T
0=
1Y
1b
0T
0Q
0c
1[
0[
1c
0-
0/
1.
0.
1/
#730000
1(
1R
03
1o
1\
1T
1=
1g
0a
1[
1n
0j
1j
1q
0o
1.
#740000
1&
0'
0(
1I
0O
0R
13
0f
1d
1]
1V
1L
1J
0F
1:
0l
0h
0^
0W
0S
1N
0q
1o
0\
0T
0=
0n
1^
1_
1S
0N
1K
0G
0g
0b
1T
1Q
0[
0o
1a
1b
0T
0Q
0j
0c
1[
0,
1-
0.
1c
0[
0-
0/
1.
1/
0.
#750000
1(
1R
03
1o
1\
1T
1=
1g
0a
1[
1j
1n
0j
1.
1q
0o
#760000
1'
0(
1O
0R
13
1l
1h
1f
0^
1W
1N
0q
1o
0\
0T
0=
1i
0g
0Y
1<
1Q
0[
0n
1m
1a
1-
0.
#770000
1(
1R
03
1q
0o
1\
1T
1=
1g
0a
1[
1j
1n
0j
1.
1o
#780000
1%
0&
0'
0(
1>
0I
0O
0R
13
1e
1X
0K
1C
1A
0f
0d
0]
0L
0J
1F
0l
0h
1^
0W
0N
0o
0\
0T
0=
0m
0_
0<
0Q
1G
0S
1N
0X
1K
0g
0[
1+
0q
1o
0i
1a
0b
1T
1Q
0e
1_
1Y
0n
1j
0-
1,
0.
0j
0c
1[
0^
0o
1-
0a
0/
1.
#790000
1(
1R
03
1o
1b
1\
0T
1=
1c
1a
0[
1j
1/
0.
#800000
1!
0"
0#
0$
0%
0(
1?
0B
0M
0U
0>
0R
13
0C
0\
0F
0:
0V
0N
0K
0=
0o
0b
0G
0a
0_
0Y
0Q
0j
0c
0,
0-
0/
#810000
1(
1R
03
1Z
1T
1[
1.
#820000
1'
0(
1O
0R
13
1P
1N
0Z
0T
1Q
0[
1-
0.
#830000
1(
1R
03
1Z
1T
1[
1.
#840000
1&
0'
0(
1I
0O
0R
13
1F
1C
0P
0N
0Z
0T
1G
0Q
0[
1,
0-
0.
#850000
1(
1R
03
1Z
1T
1[
1.
#860000
1'
0(
1O
0R
13
1P
1N
0Z
0T
1Q
0[
1-
0.
#870000
1(
1R
03
1Z
1T
1[
1.
#880000
1%
0&
0'
0(
1>
0I
0O
0R
13
1E
0C
0A
0F
0P
0N
0Z
0T
1F
0G
0Q
0[
0+
1G
0,
0-
0.
1,
#890000
1(
1R
03
1Z
1T
1[
1.
#900000
1$
0%
0(
1U
0>
0R
13
0E
1A
0Z
0F
1+
0G
0,
#910000
1(
1R
03
1o
1b
1Z
0T
1c
0[
1/
0.
#920000
1'
0(
1O
0R
13
1l
1f
1P
1N
0o
0b
0Z
1T
1j
1Q
0c
1[
1-
0/
1.
#930000
1(
1R
03
1o
1b
1Z
0T
1c
0[
1/
0.
#940000
1&
0'
0(
1I
0O
0R
13
0f
1]
1F
1C
0l
0P
0N
0o
0b
0Z
1T
0j
1^
1G
0Q
0c
1[
1a
1,
0-
0/
1.
#950000
1(
1R
03
1o
1b
1Z
0T
1c
0[
1/
0.
#960000
1'
0(
1O
0R
13
1l
1f
1P
1N
0o
0b
0Z
1T
1j
1Q
0c
1[
1-
0/
1.
#970000
1(
1R
03
1o
1b
1Z
0T
1c
0[
1/
0.
#980000
1%
0&
0'
0(
1>
0I
0O
0R
13
1V
1E
0C
0A
0f
0]
0F
0l
0P
0N
0o
0b
0Z
1T
1_
1Y
1F
0G
0j
0^
0Q
0c
1[
0+
1G
0a
0,
0-
0/
1.
1,
#990000
1(
1R
03
1o
1b
1`
1Z
0T
1c
1a
0[
1/
0.
