Calculadora/simulation/qsim/ULA.msim.vcd
$comment
	File created using the following command:
		vcd file ULA.msim.vcd -direction
$end
$date
	Thu Jun 28 18:29:08 2018
$end
$version
	ModelSim Version 10.1d
$end
$timescale
	1ps
$end
$scope module ULA_vlg_vec_tst $end
$var reg 10 ! SW [9:0] $end
$var wire 1 " LEDR [7] $end
$var wire 1 # LEDR [6] $end
$var wire 1 $ LEDR [5] $end
$var wire 1 % LEDR [4] $end
$var wire 1 & LEDR [3] $end
$var wire 1 ' LEDR [2] $end
$var wire 1 ( LEDR [1] $end
$var wire 1 ) LEDR [0] $end
$var wire 1 * sampler $end
$scope module i1 $end
$var wire 1 + gnd $end
$var wire 1 , vcc $end
$var wire 1 - unknown $end
$var tri1 1 . devclrn $end
$var tri1 1 / devpor $end
$var tri1 1 0 devoe $end
$var wire 1 1 inst4|inst21~combout $end
$var wire 1 2 inst4|inst20~combout $end
$var wire 1 3 inst4|inst36|inst2~0_combout $end
$var wire 1 4 inst4|inst18~combout $end
$var wire 1 5 inst3|inst1|inst2~0_combout $end
$var wire 1 6 inst4|inst26|inst1~combout $end
$var wire 1 7 inst4|inst39|inst3~3_combout $end
$var wire 1 8 inst4|inst6~combout $end
$var wire 1 9 inst4|inst|inst3~combout $end
$var wire 1 : inst4|inst14|inst2~0_combout $end
$var wire 1 ; inst4|inst5~combout $end
$var wire 1 < inst4|inst15|inst2~0_combout $end
$var wire 1 = inst4|inst4~combout $end
$var wire 1 > inst4|inst1|inst3~0_combout $end
$var wire 1 ? inst4|inst1|inst3~combout $end
$var wire 1 @ inst4|inst15|inst1~combout $end
$var wire 1 A inst4|inst24|inst2~0_combout $end
$var wire 1 B inst4|inst25|inst2~0_combout $end
$var wire 1 C inst4|inst26|inst2~0_combout $end
$var wire 1 D inst4|inst38|inst2~0_combout $end
$var wire 1 E inst3|inst|inst2~0_combout $end
$var wire 1 F inst5|inst7|inst3~0_combout $end
$var wire 1 G inst4|inst38|inst~0_combout $end
$var wire 1 H inst5|inst6|inst3~0_combout $end
$var wire 1 I inst4|inst25|inst1~combout $end
$var wire 1 J inst4|inst39|inst3~2_combout $end
$var wire 1 K inst4|inst29~combout $end
$var wire 1 L inst4|inst37|inst2~0_combout $end
$var wire 1 M inst4|inst28~combout $end
$var wire 1 N inst4|inst36|inst~combout $end
$var wire 1 O inst5|inst5|inst3~0_combout $end
$var wire 1 P inst4|inst37|inst~combout $end
$var wire 1 Q inst5|inst4|inst3~0_combout $end
$var wire 1 R inst4|inst35~combout $end
$var wire 1 S inst4|inst24|inst~combout $end
$var wire 1 T inst3|inst|inst~0_combout $end
$var wire 1 U inst5|inst3|inst3~0_combout $end
$var wire 1 V inst4|inst22~combout $end
$var wire 1 W inst3|inst3|inst2~0_combout $end
$var wire 1 X inst3|inst2|inst2~0_combout $end
$var wire 1 Y inst3|inst1|inst~0_combout $end
$var wire 1 Z inst4|inst14|inst~combout $end
$var wire 1 [ inst5|inst2|inst3~0_combout $end
$var wire 1 \ inst4|inst|inst1~combout $end
$var wire 1 ] inst3|inst2|inst~combout $end
$var wire 1 ^ inst5|inst1|inst3~0_combout $end
$var wire 1 _ inst5|inst|inst3~0_combout $end
$var wire 1 ` SW~combout [9] $end
$var wire 1 a SW~combout [8] $end
$var wire 1 b SW~combout [7] $end
$var wire 1 c SW~combout [6] $end
$var wire 1 d SW~combout [5] $end
$var wire 1 e SW~combout [4] $end
$var wire 1 f SW~combout [3] $end
$var wire 1 g SW~combout [2] $end
$var wire 1 h SW~combout [1] $end
$var wire 1 i SW~combout [0] $end
$upscope $end
$upscope $end
$enddefinitions $end
#0
$dumpvars
b10000 !
0)
0(
0'
0&
0%
0$
0#
0"
x*
0+
1,
x-
1.
1/
10
01
02
03
04
05
06
07
08
09
0:
0;
0<
0=
0>
0?
0@
0A
0B
0C
0D
0E
0F
0G
0H
0I
0J
0K
0L
0M
0N
0O
0P
0Q
0R
0S
0T
0U
0V
0W
0X
0Y
0Z
0[
0\
0]
0^
0_
0i
0h
0g
0f
1e
0d
0c
0b
0a
0`
$end
#10000
b10001 !
1i
0*
#20000
b10011 !
b10010 !
0i
1h
1*
1]
#30000
b10011 !
1i
0*
#40000
b10111 !
b10101 !
b10100 !
0i
0h
1g
1*
0]
1Y
#50000
b10101 !
1i
0*
#60000
b10111 !
b10110 !
0i
1h
1*
1]
#70000
b10111 !
1i
0*
#80000
b11111 !
b11011 !
b11001 !
b11000 !
0i
0h
0g
1f
1*
0]
0Y
1T
#90000
b11001 !
1i
0*
#100000
b1011001 !
b1010001 !
b1010000 !
0i
0f
1c
1*
0T
#110000
b1010001 !
1i
0*
1_
1W
1]
1)
#120000
b1010011 !
b1010010 !
0i
1h
1*
0_
1\
0W
0]
1X
1^
1]
0X
1Y
0)
0Y
1(
#130000
b1010011 !
1i
0*
1_
1W
0]
1X
1)
1Y
#140000
b1010111 !
b1010101 !
b1010100 !
0i
0h
1g
1*
0_
0\
0W
1]
0X
0Y
1V
15
0^
0]
1Y
05
1[
1T
0)
0T
0(
1'
#150000
b1010101 !
1i
0*
1_
1W
1]
1)
#160000
b1010111 !
b1010110 !
0i
1h
1*
0_
1\
0W
0]
1X
1^
1]
0X
0Y
15
0)
1Y
05
1T
1(
0T
#170000
b1010111 !
1i
0*
1_
1W
0]
1X
1)
0Y
15
1T
#180000
b1011111 !
b1011011 !
b1011001 !
b1011000 !
0i
0h
0g
1f
1*
0_
0\
0W
1]
0X
1Y
0V
05
0T
1R
1E
0^
0]
0Y
0[
1T
0E
1U
0)
0(
0'
1&
#190000
b1011001 !
1i
0*
1_
1W
1]
1)
#200000
b11011001 !
b10011001 !
b10010001 !
b10010000 !
0i
0f
0c
1b
1*
0_
0W
0T
0R
0]
1X
1]
0X
0U
1Y
0)
0Y
0&
#210000
b10010001 !
1i
0*
1\
1^
1(
#220000
b10010011 !
b10010010 !
0i
1h
1*
0\
1>
0]
1X
18
0^
1Y
1Z
1[
0(
1'
#230000
b10010011 !
1i
0*
1\
0>
1^
1(
#240000
b10010111 !
b10010101 !
b10010100 !
0i
0h
1g
1*
0\
1]
0X
08
0Y
17
15
11
0^
1Y
05
0Z
1T
1S
0[
0T
1U
0(
0'
1&
#250000
b10010101 !
1i
0*
1\
1^
1(
#260000
b10010111 !
b10010110 !
0i
1h
1*
0\
1>
0]
1X
18
0^
0Y
15
1Z
1[
1T
0(
1'
#270000
b10010111 !
1i
0*
1\
0>
1^
1(
#280000
b10011111 !
b10011011 !
b10011001 !
b10011000 !
0i
0h
0g
1f
1*
0\
1]
0X
08
1Y
07
05
01
0T
1K
1E
0^
0Y
0Z
1T
0E
0S
1P
0[
0U
1Q
0(
0'
0&
1%
#290000
b10011001 !
1i
0*
1\
1^
1(
#300000
b11011001 !
b11010001 !
b11010000 !
0i
0f
1c
1*
0\
0T
0K
0^
0P
0Q
0(
0%
#310000
b11010001 !
1i
0*
1_
1\
1W
1^
0]
1X
1)
1Y
1(
#320000
b11010011 !
b11010010 !
0i
1h
1*
0_
0W
1>
1]
18
0]
1Z
0)
1[
1'
#330000
b11010011 !
1i
0*
1_
0\
1W
0>
19
0^
1]
0Z
1:
1)
0[
1S
17
0(
1U
0'
1&
#340000
b11010111 !
b11010101 !
b11010100 !
0i
0h
1g
1*
0_
0W
09
0]
08
0Y
1V
07
15
11
1]
0X
0:
1[
1T
0S
1A
0)
1Y
05
1S
0A
17
0U
1P
1'
0T
1U
0P
1Q
0&
0Q
1&
1%
0%
#350000
b11010101 !
1i
0*
1_
1\
1W
1^
0]
1X
1)
0Y
15
1(
1T
#360000
b11010111 !
b11010110 !
0i
1h
1*
0_
0W
1>
1]
18
0]
1?
1Z
0)
0S
1A
07
0[
0U
1P
0'
1Q
0&
1%
#370000
b11010111 !
1i
0*
1_
0\
1W
0>
19
0^
1]
0?
0Z
1:
1)
1[
0(
1'
#380000
b11011111 !
b11011011 !
b11011001 !
b11011000 !
0i
0h
0g
1f
1*
0_
0W
09
0]
08
1Y
0V
17
05
01
0T
1R
1K
1E
1]
0X
0:
0[
1J
1T
0E
1S
0A
1U
0P
1L
0)
0Y
0S
07
0U
0Q
1N
0'
1&
1U
0J
1O
0&
0%
1P
0L
1&
1$
1Q
0N
0O
1%
0$
#390000
b11011001 !
1i
0*
1_
1\
1W
1^
0]
1X
1)
1Y
1(
#400000
b111011001 !
b101011001 !
b100011001 !
b100010001 !
b100010000 !
0i
0f
0c
0b
1a
1*
0_
0\
0W
0T
0R
0K
1]
0X
0Y
15
0^
0]
0U
0P
1Y
05
1T
0)
0Q
0T
0(
0&
0%
#410000
b100010001 !
1i
0*
1Z
1>
1[
1'
#420000
b100010011 !
b100010010 !
0i
1h
1*
0Z
1@
0>
1]
1;
0[
1S
1U
0'
1&
#430000
b100010011 !
1i
0*
1Z
1>
1[
1'
#440000
b100010111 !
b100010101 !
b100010100 !
0i
0h
1g
1*
0Z
0@
0>
0]
0;
0Y
1I
15
12
0[
0S
1P
1T
0U
1Q
0'
0&
1%
#450000
b100010101 !
1i
0*
1Z
1>
1[
1'
#460000
b100010111 !
b100010110 !
0i
1h
1*
0Z
1@
0>
1]
1;
0[
1S
1U
0'
1&
#470000
b100010111 !
1i
0*
1Z
1>
1[
1'
#480000
b100011111 !
b100011011 !
b100011001 !
b100011000 !
0i
0h
0g
1f
1*
0Z
0@
0>
0]
0;
1Y
0I
05
02
0T
1M
1E
0[
0S
0P
1T
0E
1N
0U
0Q
1O
0'
0&
0%
1$
#490000
b100011001 !
1i
0*
1Z
1>
1[
1'
#500000
b101011001 !
b101010001 !
b101010000 !
0i
0f
1c
1*
0Z
0>
0T
0M
0[
0N
0O
0'
0$
#510000
b101010001 !
1i
0*
1_
1Z
1W
1>
1[
1]
1)
1'
#520000
b101010011 !
b101010010 !
0i
1h
1*
0_
1\
0Z
0W
1@
0>
0]
1X
1;
1^
0[
1]
0X
1S
0Y
15
0)
1Y
05
1U
1T
1(
0'
0T
1&
#530000
b101010011 !
1i
0*
1_
1Z
1W
1>
1[
0]
1X
1)
0Y
15
1'
1T
#540000
b101010111 !
b101010101 !
b101010100 !
0i
0h
1g
1*
0_
0\
0Z
0W
0@
0>
1]
0X
0;
1Y
1V
1I
1?
12
0^
0]
0?
0Y
1P
17
0)
0S
07
1Q
0(
0U
1%
0&
#550000
b101010101 !
1i
0*
1_
1Z
1W
1>
0[
1]
1?
1)
1S
17
0'
1U
1&
#560000
b101010111 !
b101010110 !
0i
1h
1*
0_
1\
0Z
0W
1@
0>
0]
1X
1;
1^
1[
1]
0X
0S
1A
0?
1Y
0)
0Y
0U
0P
1B
1S
0A
07
1(
1'
0Q
1N
1U
1P
0B
0&
1O
1Q
0N
0%
1&
0O
1$
1%
0$
#570000
b101010111 !
1i
0*
1_
1Z
1W
1>
0[
0]
1X
1?
1)
1Y
0S
1A
17
0'
0U
0P
1B
0Q
1N
0&
1O
0%
1$
#580000
b101011111 !
b101011011 !
b101011001 !
b101011000 !
0i
0h
0g
1f
1*
0_
0\
0Z
0W
0@
0>
1]
0X
0;
0Y
0V
0I
0?
02
0T
1R
1M
1E
0^
0]
1J
0A
1Y
05
1P
07
0B
1U
0N
13
0)
1T
0E
1Q
0J
1N
03
0O
1G
0(
1&
1O
1H
0P
0G
1%
0$
0Q
0H
1$
1#
0%
0#
#590000
b101011001 !
1i
0*
1_
1Z
1W
1>
1[
1]
1)
1'
#600000
b111011001 !
b110011001 !
b110010001 !
b110010000 !
0i
0f
0c
1b
1*
0_
0Z
0W
0>
0T
0R
0M
0]
1X
0[
1]
0X
0U
0N
0Y
15
0)
1Y
05
0O
1T
0'
0&
0T
0$
#610000
b110010001 !
1i
0*
1\
1Z
1>
1^
1[
1(
1'
#620000
b110010011 !
b110010010 !
0i
1h
1*
0\
0Z
1@
0]
1X
1;
18
0^
0[
1S
0Y
15
1Z
1U
1[
1T
0(
0'
1&
1'
#630000
b110010011 !
1i
0*
1\
0Z
1:
1^
0[
0S
1<
17
0U
1I
1(
0'
1P
0&
1Q
1%
#640000
b110010111 !
b110010101 !
b110010100 !
0i
0h
1g
1*
0\
1Z
0@
0>
0:
1]
0X
0;
08
1Y
0I
07
12
11
0^
1[
1S
0<
17
0Y
0Z
0P
1B
1U
1I
0B
0[
0Q
1N
0(
1'
1P
0N
1O
1&
0'
0%
1Q
0O
1$
1%
0$
#650000
b110010101 !
1i
0*
1\
1Z
1>
1^
1[
1(
1'
#660000
b110010111 !
b110010110 !
0i
1h
1*
0\
0Z
1@
0]
1X
1;
18
0^
0[
0S
1A
1Y
1Z
0U
0P
1B
1[
0(
0'
0Q
1N
0&
1'
1O
0%
1$
#670000
b110010111 !
1i
0*
1\
0Z
1:
1^
0[
1S
0A
1<
07
1U
1P
0I
1(
0'
1Q
0P
1&
0Q
1%
0%
#680000
b110011111 !
b110011011 !
b110011001 !
b110011000 !
0i
0h
0g
1f
1*
0\
1Z
0@
0>
0:
1]
0X
0;
08
0Y
1I
17
02
01
0T
1M
1K
1E
0^
1[
0S
0<
07
1Y
05
0Z
1L
0B
0N
13
0U
0I
0[
1T
0E
0O
1G
0(
1'
1P
0L
1H
0&
0'
0$
1Q
1N
03
1#
1O
0G
1%
0H
1$
0#
#690000
b110011001 !
1i
0*
1\
1Z
1>
1^
1[
1(
1'
#700000
b111011001 !
b111010001 !
b111010000 !
0i
0f
1c
1*
0\
0Z
0>
0T
0M
0K
0^
0[
0N
0P
0O
0Q
0(
0'
0$
0%
#710000
b111010001 !
1i
0*
1_
1\
1Z
1W
1>
1^
1[
0]
1X
1)
0Y
15
1(
1'
1T
#720000
b111010011 !
b111010010 !
0i
1h
1*
0_
0Z
0W
1@
1]
1;
18
0[
0]
1S
1Z
0)
1U
1[
0'
1&
1'
#730000
b111010011 !
1i
0*
1_
0\
0Z
1W
1:
19
0^
0[
1]
0S
1<
17
1Z
1)
0U
1I
1[
0(
0'
1P
0&
1'
1Q
1%
#740000
b111010111 !
b111010101 !
b111010100 !
0i
0h
1g
1*
0_
0Z
0W
0@
0>
09
0]
0;
08
1Y
1V
0I
1?
07
12
11
1]
0X
1S
1A
0?
0:
0<
0P
17
1B
0)
0Y
1U
1P
0A
1I
0Q
1N
1Q
0B
1O
1&
0%
0N
1%
1$
0O
0$
#750000
b111010101 !
1i
0*
1_
1\
1Z
1W
1>
1^
0[
0]
1X
1?
1)
1Y
0S
1A
07
1(
0'
0U
0P
1B
0Q
1N
0&
1O
0%
1$
#760000
b111010111 !
b111010110 !
0i
1h
1*
0_
0Z
0W
1@
1]
1;
18
1[
0]
1S
1Z
0)
1U
0[
1'
1&
0'
#770000
b111010111 !
1i
0*
1_
0\
0Z
1W
1:
19
0^
1[
1]
0S
1<
17
1Z
1)
0U
0I
0[
0(
1'
1P
0&
0'
1Q
1%
#780000
b111011111 !
b111011011 !
b111011001 !
b111011000 !
0i
0h
0g
1f
1*
0_
0Z
0W
0@
0>
09
0]
0;
08
0Y
0V
1I
0?
07
02
01
0T
1R
1M
1K
1E
1]
0X
1S
0A
0:
0<
17
1U
0N
13
0)
1Y
05
0U
0P
1L
0B
0S
07
0I
1J
0O
1G
1&
1T
0E
0Q
1U
0J
1H
0&
0$
1P
0L
0%
1&
1#
1Q
1N
03
1O
0G
1%
0H
1$
0#
#790000
b111011001 !
1i
0*
1_
1\
1Z
1W
1>
1^
1[
0]
1X
1)
0Y
15
1(
1'
0T
1E
#800000
b1111011001 !
b1011011001 !
b1001011001 !
b1000011001 !
b1000010001 !
b1000010000 !
0i
0f
0c
0b
0a
1`
1*
0_
0\
0Z
0W
0>
0R
0M
0K
1]
0X
1Y
05
0^
0[
0]
0U
0N
0P
0Y
1T
0E
0)
0O
0Q
0(
0'
0&
0$
0%
#810000
b1000010001 !
1i
0*
1@
1S
1U
1&
#820000
b1000010011 !
b1000010010 !
0i
1h
1*
0@
1]
1=
0S
1I
0U
1P
1Q
0&
1%
#830000
b1000010011 !
1i
0*
1@
1S
1U
1&
#840000
b1000010111 !
b1000010101 !
b1000010100 !
0i
0h
1g
1*
0@
0]
0=
16
1Y
14
0S
0I
1N
0U
0P
1O
0Q
0&
1$
0%
#850000
b1000010101 !
1i
0*
1@
1S
1U
1&
#860000
b1000010111 !
b1000010110 !
0i
1h
1*
0@
1]
1=
0S
1I
0U
1P
1Q
0&
1%
#870000
b1000010111 !
1i
0*
1@
1S
1U
1&
#880000
b1000011111 !
b1000011011 !
b1000011001 !
b1000011000 !
0i
0h
0g
1f
1*
0@
0]
0=
06
0Y
04
0T
1G
1E
0S
0I
0N
1H
0U
0P
0O
1#
0Q
0&
0$
0%
#890000
b1000011001 !
1i
0*
1@
1S
1U
1&
#900000
b1001011001 !
b1001010001 !
b1001010000 !
0i
0f
1c
1*
0@
1T
0G
0E
0S
0H
0U
0#
0&
#910000
b1001010001 !
1i
0*
1_
1W
1@
1]
1S
1)
1U
1&
#920000
b1001010011 !
b1001010010 !
0i
1h
1*
0_
1\
0W
0@
0]
1X
1=
1^
1]
0X
0S
1Y
1I
0)
0Y
0U
1P
1(
1Q
0&
1%
#930000
b1001010011 !
1i
0*
1_
1W
1@
0]
1X
1S
1)
1Y
1U
1&
#940000
b1001010111 !
b1001010101 !
b1001010100 !
0i
0h
1g
1*
0_
0\
0W
0@
1]
0X
0=
16
0Y
1V
15
14
0^
0]
0S
1Y
05
0I
1N
1[
0T
1E
0)
0U
1T
0E
0P
1O
0(
1'
0Q
0&
1$
0%
#950000
b1001010101 !
1i
0*
1_
1W
1@
1]
1S
1)
1U
1&
#960000
b1001010111 !
b1001010110 !
0i
1h
1*
0_
1\
0W
0@
0]
1X
1=
1^
1]
0X
0S
0Y
15
1I
0)
1Y
05
0U
0T
1E
1P
1(
1T
0E
1Q
0&
1%
#970000
b1001010111 !
1i
0*
1_
1W
1@
0]
1X
1S
1)
0Y
15
1U
0T
1E
1&
#980000
b1001011111 !
b1001011011 !
b1001011001 !
b1001011000 !
0i
0h
0g
1f
1*
0_
0\
0W
0@
1]
0X
0=
06
1Y
0V
05
04
1T
1R
1J
1G
0^
0]
0S
0J
0Y
0I
0N
0[
0T
0U
0P
1L
1H
0)
1U
0L
0O
0Q
1N
0(
0'
0&
1#
0N
1O
1&
0$
0%
0O
1$
0$
#990000
b1001011001 !
1i
0*
1_
1W
1@
1]
1S
1J
1)
0U
1P
1Q
0&
1%
